\relax 
\providecommand\hyper@newdestlabel[2]{}
\providecommand\BKM@entry[2]{}
\providecommand\zref@newlabel[2]{}
\providecommand\HyperFirstAtBeginDocument{\AtBeginDocument}
\HyperFirstAtBeginDocument{\ifx\hyper@anchor\@undefined
\global\let\oldcontentsline\contentsline
\gdef\contentsline#1#2#3#4{\oldcontentsline{#1}{#2}{#3}}
\global\let\oldnewlabel\newlabel
\gdef\newlabel#1#2{\newlabelxx{#1}#2}
\gdef\newlabelxx#1#2#3#4#5#6{\oldnewlabel{#1}{{#2}{#3}}}
\AtEndDocument{\ifx\hyper@anchor\@undefined
\let\contentsline\oldcontentsline
\let\newlabel\oldnewlabel
\fi}
\fi}
\global\let\hyper@last\relax 
\gdef\HyperFirstAtBeginDocument#1{#1}
\providecommand\HyField@AuxAddToFields[1]{}
\providecommand\HyField@AuxAddToCoFields[2]{}
\providecommand \acro@used@once [4]{}
\providecommand \acro@used@twice [4]{}
\providecommand \acro@pages [2]{}
\providecommand \acro@rerun@check {}
\providecommand \acro@print@list {}
\providecommand \acro@barriers [2]{}
\acro@used@once {lcms}{1}{1}{1}
\acro@print@list 
\BKM@entry{id=1,dest={636861707465722E31},srcline={1}}{3120496E74726F64756374696F6E}
\BKM@entry{id=2,dest={73656374696F6E2E312E31},srcline={8}}{312E31204F6D69637320746563686E6F6C6F67696573}
\citation{Aardema2002}
\citation{Vlaanderen2010}
\citation{Wheelock2013}
\citation{Zhang2007}
\citation{Davies2010}
\citation{Zhang2008}
\BKM@entry{id=3,dest={73756273656374696F6E2E312E312E31},srcline={18}}{312E312E31204F6D696373206C6179657273}
\citation{Lander2001}
\citation{Wang2009}
\citation{Anderson1998}
\citation{Blackstock1999}
\citation{Oliver1998}
\@writefile{toc}{\contentsline {chapter}{\numberline {1}Introduction}{13}{chapter.1}}
\@writefile{lof}{\addvspace {10\p@ }}
\@writefile{lot}{\addvspace {10\p@ }}
\newlabel{c:intro}{{1}{13}{Introduction}{chapter.1}{}}
\@writefile{toc}{\contentsline {section}{\numberline {1.1}Omics technologies}{13}{section.1.1}}
\newlabel{c:intro:omics}{{1.1}{13}{Omics technologies}{section.1.1}{}}
\@writefile{toc}{\contentsline {subsection}{\numberline {1.1.1}Omics layers}{13}{subsection.1.1.1}}
\newlabel{c:intro:omics:layers}{{1.1.1}{13}{Omics layers}{subsection.1.1.1}{}}
\citation{Breitbart1987}
\citation{Gygi1999}
\citation{Tate1993}
\citation{Pan2008}
\citation{Covello1989}
\citation{mann2003proteomic}
\BKM@entry{id=4,dest={73756273656374696F6E2E312E312E32},srcline={43}}{312E312E32204F6D69637320696E746572616374696F6E73}
\citation{DeTayrac2009}
\citation{Meng2014}
\citation{Zhang2010}
\citation{LeCao2009}
\citation{Polpitiya2008}
\citation{Rohart2017}
\citation{Fukushima2009}
\citation{Joyce2006}
\@writefile{lof}{\contentsline {figure}{\numberline {1.1}{\ignorespaces Omics layers organisation}}{14}{figure.caption.5}}
\providecommand*\caption@xref[2]{\@setref\relax\@undefined{#1}}
\newlabel{fig:omics_pyramide}{{1.1}{14}{Omics layers organisation}{figure.caption.5}{}}
\acro@used@once {ptms}{14}{14}{14}
\BKM@entry{id=5,dest={73656374696F6E2E312E32},srcline={14}}{312E32204D657461626F6C6F6D696373}
\citation{Fiehn2002}
\@writefile{toc}{\contentsline {subsection}{\numberline {1.1.2}Omics interactions}{15}{subsection.1.1.2}}
\newlabel{c:intro:metabolomics:biochemreactions}{{1.1.2}{15}{Omics interactions}{subsection.1.1.2}{}}
\@writefile{toc}{\contentsline {section}{\numberline {1.2}Metabolomics}{15}{section.1.2}}
\newlabel{c:intro:metabo}{{1.2}{15}{Metabolomics}{section.1.2}{}}
\acro@used@once {nmr}{15}{15}{15}
\acro@used@once {ms}{15}{15}{15}
\BKM@entry{id=6,dest={73756273656374696F6E2E312E322E31},srcline={19}}{312E322E31204D617373207370656374726F6D65747279206D657461626F6C6F6D69637320776F726B666C6F77}
\@writefile{toc}{\contentsline {subsection}{\numberline {1.2.1}Mass spectrometry metabolomics workflow}{16}{subsection.1.2.1}}
\newlabel{c:intro:metabo:metaboworkflow}{{1.2.1}{16}{Mass spectrometry metabolomics workflow}{subsection.1.2.1}{}}
\BKM@entry{id=7,dest={73656374696F6E2E312E33},srcline={20}}{312E33204C434D53204D657461626F6C6F6D696373}
\BKM@entry{id=8,dest={73756273656374696F6E2E312E332E31},srcline={12}}{312E332E31204D6561737572656D656E7420616E642073657061726174696F6E20746563686E6F6C6F67696573}
\citation{Winger1993}
\citation{Santos2003}
\citation{yamashita1984electrospray}
\citation{Karas1985}
\citation{Lee2010}
\citation{yost1979triple}
\acro@used@once {lims}{16}{16}{16}
\@writefile{toc}{\contentsline {section}{\numberline {1.3}LCMS Metabolomics}{17}{section.1.3}}
\newlabel{c:intro:LCMSmetabo}{{1.3}{17}{LCMS Metabolomics}{section.1.3}{}}
\@writefile{toc}{\contentsline {subsection}{\numberline {1.3.1}Measurement and separation technologies}{17}{subsection.1.3.1}}
\newlabel{c:intro:LCMSmetabo:tech}{{1.3.1}{17}{Measurement and separation technologies}{subsection.1.3.1}{}}
\acro@used@once {mz}{17}{17}{17}
\acro@used@once {tof}{17}{17}{17}
\acro@used@once {msms}{17}{17}{17}
\citation{Buszewski2012}
\citation{Dettmer2007}
\BKM@entry{id=9,dest={73756273656374696F6E2E312E332E32},srcline={38}}{312E332E32204461746120666F726D6174}
\citation{Pedrioli2004}
\citation{Lin2005}
\citation{Martens2011}
\citation{Chambers2012}
\citation{Holman2014}
\@writefile{lof}{\contentsline {figure}{\numberline {1.2}{\ignorespaces Triple quadrupole diagram}}{18}{figure.caption.6}}
\newlabel{fig:mass_spectrometer}{{1.2}{18}{Triple quadrupole diagram}{figure.caption.6}{}}
\acro@used@once {hplc}{18}{18}{18}
\acro@used@once {hilic}{18}{18}{18}
\@writefile{toc}{\contentsline {subsection}{\numberline {1.3.2}Data\ format}{18}{subsection.1.3.2}}
\newlabel{c:intro:LCMSmetabo:dataformat}{{1.3.2}{18}{Data\ format}{subsection.1.3.2}{}}
\@writefile{lof}{\contentsline {figure}{\numberline {1.3}{\ignorespaces Liquid Chromatography - Mass Spectrometry system}}{19}{figure.caption.7}}
\newlabel{fig:LC_system}{{1.3}{19}{Liquid Chromatography - Mass Spectrometry system}{figure.caption.7}{}}
\BKM@entry{id=10,dest={73756273656374696F6E2E312E332E33},srcline={72}}{312E332E3320446174612070726F63657373696E67}
\citation{Afgan2016}
\@writefile{lof}{\contentsline {figure}{\numberline {1.4}{\ignorespaces LCMS 3-dimensional chromatogram}}{20}{figure.caption.8}}
\newlabel{fig:3d_chromat}{{1.4}{20}{LCMS 3-dimensional chromatogram}{figure.caption.8}{}}
\@writefile{lof}{\contentsline {figure}{\numberline {1.5}{\ignorespaces Single mass spectrum selected from an LCMS data file}}{20}{figure.caption.9}}
\newlabel{fig:3d_chromat_mass_spec_section}{{1.5}{20}{Single mass spectrum selected from an LCMS data file}{figure.caption.9}{}}
\citation{Tautenhahn2008}
\citation{Smith:2006}
\citation{Tikunov2005}
\citation{Katajamaa:2006}
\@writefile{lof}{\contentsline {figure}{\numberline {1.6}{\ignorespaces LCMS 3-dimensional chromatogram - Extracted ion chromatogram}}{21}{figure.caption.10}}
\newlabel{fig:3d_chromat_mass_spec_section2}{{1.6}{21}{LCMS 3-dimensional chromatogram - Extracted ion chromatogram}{figure.caption.10}{}}
\@writefile{toc}{\contentsline {subsection}{\numberline {1.3.3}Data processing}{21}{subsection.1.3.3}}
\newlabel{c:intro:LCMSmetabo:dataprocessing}{{1.3.3}{21}{Data processing}{subsection.1.3.3}{}}
\@writefile{toc}{\contentsline {subsubsection}{Peak detection}{21}{section*.11}}
\newlabel{c:intro:LCMSmetabo:dataprocessing:peakdetection}{{1.3.3}{21}{Peak detection}{section*.11}{}}
\citation{Kassidas1998}
\citation{Eilers2004}
\citation{VanNederkassel2006}
\citation{Nielsen1998}
\citation{NIPS2004_2721}
\citation{Christin2008}
\citation{Christin2010}
\citation{And2006}
\citation{Voss2011}
\citation{Hoffmann2012}
\citation{Ballardini2011}
\citation{Katajamaa:2006}
\@writefile{toc}{\contentsline {subsubsection}{Peak alignment}{22}{section*.12}}
\newlabel{c:intro:LCMSmetabo:dataprocessing:peakalignment}{{1.3.3}{22}{Peak alignment}{section*.12}{}}
\acro@used@once {tic}{22}{22}{22}
\acro@used@once {dtw}{22}{22}{22}
\acro@used@once {ptw}{22}{22}{22}
\acro@used@once {cow}{22}{22}{22}
\acro@used@once {cpm}{22}{22}{22}
\acro@used@once {coda}{22}{22}{22}
\acro@used@once {obiwarp}{22}{22}{22}
\citation{Smith2013}
\citation{Lange2008}
\citation{Smith2015}
\citation{Berg2013}
\citation{Scheltema2008}
\citation{Scheltema:2011}
\citation{Annesley2003}
\@writefile{toc}{\contentsline {subsubsection}{Data filtering}{23}{section*.13}}
\newlabel{c:intro:LCMSmetabo:dataprocessing:filtering}{{1.3.3}{23}{Data filtering}{section*.13}{}}
\@writefile{toc}{\contentsline {subsubsection}{Gap filling}{23}{section*.14}}
\newlabel{c:intro:LCMSmetabo:dataprocessing:gapfilling}{{1.3.3}{23}{Gap filling}{section*.14}{}}
\@writefile{toc}{\contentsline {subsubsection}{Peak grouping}{23}{section*.15}}
\newlabel{c:intro:LCMSmetabo:dataprocessing:peakgrouping}{{1.3.3}{23}{Peak grouping}{section*.15}{}}
\citation{Kuhl2012}
\citation{Sumner2007}
\citation{Kanehisa2014}
\citation{Kim2016}
\citation{Wishart2013}
\citation{Sud2007}
\citation{Kind2006}
\citation{Creek2011}
\citation{Horai2010}
\citation{Pence2010}
\@writefile{toc}{\contentsline {subsubsection}{Peak identification}{24}{section*.16}}
\newlabel{c:intro:LCMSmetabo:dataprocessing:peakid}{{1.3.3}{24}{Peak identification}{section*.16}{}}
\acro@used@once {msi}{24}{24}{24}
\citation{FernAndez-Albert2014}
\citation{Wehrens2016}
\citation{Ejigu2013}
\citation{benjamini1995controlling}
\BKM@entry{id=11,dest={73756273656374696F6E2E312E332E34},srcline={132}}{312E332E34204461746120616E616C7973697320706C6174666F726D73}
\citation{May2009}
\citation{Katajamaa:2006}
\citation{Creek:2012}
\@writefile{toc}{\contentsline {subsubsection}{Statistical analysis}{25}{section*.17}}
\newlabel{c:intro:LCMSmetabo:dataprocessing:stat}{{1.3.3}{25}{Statistical analysis}{section*.17}{}}
\@writefile{toc}{\contentsline {subsection}{\numberline {1.3.4}Data analysis platforms}{25}{subsection.1.3.4}}
\newlabel{c:intro:LCMSmetabo:platforms}{{1.3.4}{25}{Data analysis platforms}{subsection.1.3.4}{}}
\citation{Clasquin:2012}
\citation{Tautenhahn2012}
\citation{Giacomoni:2015}
\citation{Xia:2012}
\citation{Gowda2014}
\citation{Rost2016}
\@writefile{lof}{\contentsline {figure}{\numberline {1.7}{\ignorespaces Ideom result page}}{26}{figure.caption.18}}
\newlabel{fig:ideom_comparison_tab}{{1.7}{26}{Ideom result page}{figure.caption.18}{}}
\@writefile{lof}{\contentsline {figure}{\numberline {1.8}{\ignorespaces XCMS online interactive cloud plot}}{27}{figure.caption.19}}
\newlabel{fig:XCMS_cloud_plot}{{1.8}{27}{XCMS online interactive cloud plot}{figure.caption.19}{}}
\@writefile{toc}{\contentsline {subsubsection}{Shortcoming of current data analysis platforms}{27}{section*.20}}
\newlabel{c:intro:LCMSmetabo:platforms:short}{{1.3.4}{27}{Shortcoming of current data analysis platforms}{section*.20}{}}
\citation{Xia2010}
\citation{Yamada2011}
\citation{Leader2011}
\citation{Cottret2010}
\citation{Kutmon2015}
\citation{Jourdan2008}
\citation{Karnovsky2012}
\BKM@entry{id=12,dest={73656374696F6E2E312E34},srcline={26}}{312E342050726F6772616D6D696E67206C616E6775616765732C206C696272617269657320616E64206672616D65776F726B73}
\citation{Fourment2008}
\acro@used@once {pca}{27}{27}{27}
\acro@used@once {eic}{27}{27}{27}
\@writefile{toc}{\contentsline {section}{\numberline {1.4}Programming languages, libraries and frameworks}{28}{section.1.4}}
\newlabel{c:intro:prog}{{1.4}{28}{Programming languages, libraries and frameworks}{section.1.4}{}}
\citation{MATLAB:2010}
\citation{R}
\citation{shiny}
\citation{rubyonrails}
\citation{django}
\BKM@entry{id=13,dest={73656374696F6E2E312E35},srcline={32}}{312E352042696F6C6F676963616C206E6574776F726B73}
\citation{Tong2004}
\citation{Stuart2003}
\citation{Karlebach2008}
\citation{Ashburner2000}
\@writefile{toc}{\contentsline {section}{\numberline {1.5}Biological networks}{29}{section.1.5}}
\newlabel{c:intro:bionetwork}{{1.5}{29}{Biological networks}{section.1.5}{}}
\citation{Duarte2007}
\citation{Forster2003}
\citation{Orth2010}
\citation{Price2003}
\citation{Thiele2013}
\@writefile{lof}{\contentsline {figure}{\numberline {1.9}{\ignorespaces Semantic enrichment of protein-protein interaction network}}{30}{figure.caption.21}}
\newlabel{fig:prot_prot_network}{{1.9}{30}{Semantic enrichment of protein-protein interaction network}{figure.caption.21}{}}
\BKM@entry{id=14,dest={73656374696F6E2E312E36},srcline={39}}{312E362052656C6174656420776F726B}
\@writefile{lof}{\contentsline {figure}{\numberline {1.10}{\ignorespaces Genome-scale reconstruction of the human metabolic network}}{31}{figure.caption.22}}
\newlabel{fig:metabolicNetworkIntro}{{1.10}{31}{Genome-scale reconstruction of the human metabolic network}{figure.caption.22}{}}
\@writefile{toc}{\contentsline {section}{\numberline {1.6}Related work}{31}{section.1.6}}
\newlabel{c:intro:relatedwork}{{1.6}{31}{Related work}{section.1.6}{}}
\BKM@entry{id=15,dest={636861707465722E32},srcline={1}}{32204D6174657269616C7320616E64206D6574686F6473}
\BKM@entry{id=16,dest={73656374696F6E2E322E31},srcline={8}}{322E3120536F66747761726520656E67696E656572696E67}
\@writefile{toc}{\contentsline {chapter}{\numberline {2}Materials and methods}{32}{chapter.2}}
\@writefile{lof}{\addvspace {10\p@ }}
\@writefile{lot}{\addvspace {10\p@ }}
\newlabel{c:mandm}{{2}{32}{Materials and methods}{chapter.2}{}}
\@writefile{toc}{\contentsline {section}{\numberline {2.1}Software engineering}{32}{section.2.1}}
\newlabel{c:mandm:softengineering}{{2.1}{32}{Software engineering}{section.2.1}{}}
\acro@used@once {gp}{32}{32}{32}
\BKM@entry{id=17,dest={73656374696F6E2E322E32},srcline={15}}{322E32204461746120666F726D6174}
\citation{Chambers2012}
\citation{Scheltema:2011}
\citation{Bray1998}
\BKM@entry{id=18,dest={73656374696F6E2E322E33},srcline={21}}{322E33204461746120616E616C7973697320706970656C696E65}
\citation{Ihaka1996}
\citation{R}
\citation{Smith:2006}
\citation{Scheltema:2011}
\citation{celery}
\citation{rabbitmq}
\BKM@entry{id=19,dest={73656374696F6E2E322E34},srcline={27}}{322E3420576562206672616D65776F726B}
\citation{python}
\citation{django}
\citation{mysql}
\citation{nginx}
\citation{gunicorn}
\@writefile{toc}{\contentsline {section}{\numberline {2.2}Data format}{33}{section.2.2}}
\newlabel{c:mandm:dataformat}{{2.2}{33}{Data format}{section.2.2}{}}
\acro@used@once {json}{33}{33}{33}
\@writefile{toc}{\contentsline {section}{\numberline {2.3}Data analysis pipeline}{33}{section.2.3}}
\newlabel{c:mandm:dataanalysispipeline}{{2.3}{33}{Data analysis pipeline}{section.2.3}{}}
\citation{numpy}
\citation{scipy}
\citation{scikit}
\citation{rpy2}
\BKM@entry{id=20,dest={73656374696F6E2E322E35},srcline={33}}{322E3520446174612076697375616C69736174696F6E}
\@writefile{toc}{\contentsline {section}{\numberline {2.4}Web framework}{34}{section.2.4}}
\newlabel{c:mandm:webframework}{{2.4}{34}{Web framework}{section.2.4}{}}
\acro@used@once {mvt}{33}{33}{33}
\@writefile{toc}{\contentsline {section}{\numberline {2.5}Data visualisation}{34}{section.2.5}}
\newlabel{c:mandm:datavisualisation}{{2.5}{34}{Data visualisation}{section.2.5}{}}
\acro@used@once {ajax}{34}{34}{34}
\BKM@entry{id=21,dest={636861707465722E33},srcline={1}}{3320412073656D692D6175746F6D6174656420706970656C696E6520666F7220756E7461726765746564206D657461626F6C6F6D696373}
\BKM@entry{id=22,dest={73656374696F6E2E332E31},srcline={7}}{332E3120496E74726F64756374696F6E}
\citation{Beisken2015}
\citation{Gibney2005}
\@writefile{toc}{\contentsline {chapter}{\numberline {3}A semi-automated pipeline for untargeted metabolomics}{35}{chapter.3}}
\@writefile{lof}{\addvspace {10\p@ }}
\@writefile{lot}{\addvspace {10\p@ }}
\newlabel{c:pimp}{{3}{35}{A semi-automated pipeline for untargeted metabolomics}{chapter.3}{}}
\@writefile{toc}{\contentsline {section}{\numberline {3.1}Introduction}{35}{section.3.1}}
\newlabel{c:pimp:intro}{{3.1}{35}{Introduction}{section.3.1}{}}
\BKM@entry{id=23,dest={73656374696F6E2E332E32},srcline={14}}{332E322052656C6174656420776F726B}
\citation{Smith:2006}
\citation{Scheltema:2011}
\citation{Creek:2012}
\citation{Katajamaa:2006}
\@writefile{toc}{\contentsline {section}{\numberline {3.2}Related work}{36}{section.3.2}}
\newlabel{c:pimp:relatedwork}{{3.2}{36}{Related work}{section.3.2}{}}
\citation{Vincent2016}
\citation{Stipetic2016}
\citation{Gloaguen2017}
\BKM@entry{id=24,dest={73656374696F6E2E332E33},srcline={28}}{332E3320496E7465677261746564206D657461626F6C6F6D69637320776F726B666C6F77}
\BKM@entry{id=25,dest={73756273656374696F6E2E332E332E31},srcline={9}}{332E332E31204461746120616E616C7973697320776F726B666C6F77}
\@writefile{toc}{\contentsline {section}{\numberline {3.3}Integrated metabolomics workflow}{38}{section.3.3}}
\newlabel{c:pimp:integratedworkflow}{{3.3}{38}{Integrated metabolomics workflow}{section.3.3}{}}
\@writefile{toc}{\contentsline {subsection}{\numberline {3.3.1}Data\ analysis\ workflow}{38}{subsection.3.3.1}}
\newlabel{c:pimp:integratedworkflow:analysisworkflow}{{3.3.1}{38}{Data\ analysis\ workflow}{subsection.3.3.1}{}}
\@writefile{lof}{\contentsline {figure}{\numberline {3.1}{\ignorespaces Model of an integrated metabolomics workflow from hypothesis generation to biological interpretation.\relax }}{38}{figure.caption.23}}
\newlabel{fig:mwetabolomics-workflow}{{3.1}{38}{Model of an integrated metabolomics workflow from hypothesis generation to biological interpretation.\relax }{figure.caption.23}{}}
\BKM@entry{id=26,dest={73656374696F6E2E332E34},srcline={35}}{332E3420556E7461726765746564206D657461626F6C6F6D69637320706970656C696E65}
\BKM@entry{id=27,dest={73756273656374696F6E2E332E342E31},srcline={2}}{332E342E31204461746120737472756374757265}
\@writefile{lof}{\contentsline {figure}{\numberline {3.2}{\ignorespaces Area of limitation in a standard untargeted metabolomics workflow}}{39}{figure.caption.24}}
\newlabel{fig:metabolomics-workflow-limitation}{{3.2}{39}{Area of limitation in a standard untargeted metabolomics workflow}{figure.caption.24}{}}
\@writefile{toc}{\contentsline {section}{\numberline {3.4}Untargeted metabolomics pipeline}{39}{section.3.4}}
\newlabel{c:pimp:untargetedpipeline}{{3.4}{39}{Untargeted metabolomics pipeline}{section.3.4}{}}
\@writefile{toc}{\contentsline {subsection}{\numberline {3.4.1}Data\ structure}{39}{subsection.3.4.1}}
\newlabel{c:pimp:untargetedpipeline:data}{{3.4.1}{39}{Data\ structure}{subsection.3.4.1}{}}
\acro@used@once {pimp}{39}{39}{39}
\@writefile{lof}{\contentsline {figure}{\numberline {3.3}{\ignorespaces PiMP database structure}}{43}{figure.caption.25}}
\newlabel{fig:data_structure}{{3.3}{43}{PiMP database structure}{figure.caption.25}{}}
\@writefile{lof}{\contentsline {figure}{\numberline {3.4}{\ignorespaces Detailed structure of the Projects module}}{44}{figure.caption.26}}
\newlabel{fig:projects_module}{{3.4}{44}{Detailed structure of the Projects module}{figure.caption.26}{}}
\@writefile{lof}{\contentsline {figure}{\numberline {3.5}{\ignorespaces Detailed structure of the Fileupload module}}{44}{figure.caption.27}}
\newlabel{fig:fileupload_module}{{3.5}{44}{Detailed structure of the Fileupload module}{figure.caption.27}{}}
\@writefile{lof}{\contentsline {figure}{\numberline {3.6}{\ignorespaces Detailed structure of the Groups module}}{44}{figure.caption.28}}
\newlabel{fig:groups_module}{{3.6}{44}{Detailed structure of the Groups module}{figure.caption.28}{}}
\@writefile{lof}{\contentsline {figure}{\numberline {3.7}{\ignorespaces Detailed structure of the Experiments module}}{44}{figure.caption.29}}
\newlabel{fig:experiments_module}{{3.7}{44}{Detailed structure of the Experiments module}{figure.caption.29}{}}
\@writefile{lof}{\contentsline {figure}{\numberline {3.8}{\ignorespaces Detailed structure of the Data module}}{45}{figure.caption.30}}
\newlabel{fig:data_module}{{3.8}{45}{Detailed structure of the Data module}{figure.caption.30}{}}
\@writefile{lof}{\contentsline {figure}{\numberline {3.9}{\ignorespaces Detailed structure of the Compound module}}{45}{figure.caption.31}}
\newlabel{fig:compound_module}{{3.9}{45}{Detailed structure of the Compound module}{figure.caption.31}{}}
\BKM@entry{id=28,dest={73756273656374696F6E2E332E342E32},srcline={9}}{332E342E3220436F6E746578742D73656E7369746976652076697375616C69736174696F6E}
\citation{Scheltema:2011}
\citation{Leader2011}
\citation{Yamada2011}
\citation{Patti2012}
\citation{Salek2013}
\@writefile{toc}{\contentsline {subsection}{\numberline {3.4.2}Context-sensitive\ visualisation}{46}{subsection.3.4.2}}
\newlabel{c:pimp:untargetedpipeline:contextvisualisation}{{3.4.2}{46}{Context-sensitive\ visualisation}{subsection.3.4.2}{}}
\@writefile{toc}{\contentsline {subsubsection}{Raw data visualisation}{46}{section*.33}}
\newlabel{:pimp:untargetedpipeline:contextvisualisation:rawvisu}{{3.4.2}{46}{Raw data visualisation}{section*.33}{}}
\@writefile{lof}{\contentsline {figure}{\numberline {3.10}{\ignorespaces Metabolomics workflow activities that need support by context-sensitive data visualisation.\relax }}{47}{figure.caption.32}}
\newlabel{fig:mwetabolomics-workflow-support}{{3.10}{47}{Metabolomics workflow activities that need support by context-sensitive data visualisation.\relax }{figure.caption.32}{}}
\@writefile{lof}{\contentsline {figure}{\numberline {3.11}{\ignorespaces  Raw data visualisation support within the metabolomics workflow.\relax }}{47}{figure.caption.34}}
\newlabel{fig:raw-data-viz}{{3.11}{47}{Raw data visualisation support within the metabolomics workflow.\relax }{figure.caption.34}{}}
\@writefile{lof}{\contentsline {figure}{\numberline {3.12}{\ignorespaces Total Ion Current visualisation}}{47}{figure.caption.35}}
\newlabel{fig:sample-tic}{{3.12}{47}{Total Ion Current visualisation}{figure.caption.35}{}}
\@writefile{lof}{\contentsline {figure}{\numberline {3.13}{\ignorespaces Mass spectra visualisation}}{48}{figure.caption.36}}
\newlabel{fig:mass-scan}{{3.13}{48}{Mass spectra visualisation}{figure.caption.36}{}}
\@writefile{lof}{\contentsline {figure}{\numberline {3.14}{\ignorespaces Total Ion Current of the positive ionisation of biological replicates}}{49}{figure.caption.37}}
\newlabel{fig:group-tic}{{3.14}{49}{Total Ion Current of the positive ionisation of biological replicates}{figure.caption.37}{}}
\@writefile{lof}{\contentsline {figure}{\numberline {3.15}{\ignorespaces Mean and median Total Ion Current}}{49}{figure.caption.38}}
\newlabel{fig:mean-median-tic}{{3.15}{49}{Mean and median Total Ion Current}{figure.caption.38}{}}
\@writefile{toc}{\contentsline {subsubsection}{Peak set visualisation}{49}{section*.41}}
\newlabel{:pimp:untargetedpipeline:contextvisualisation:peakvisu}{{3.4.2}{49}{Peak set visualisation}{section*.41}{}}
\@writefile{lof}{\contentsline {figure}{\numberline {3.16}{\ignorespaces Peak discovery tool}}{50}{figure.caption.39}}
\newlabel{fig:peak_discovery_tool}{{3.16}{50}{Peak discovery tool}{figure.caption.39}{}}
\@writefile{toc}{\contentsline {subsubsection}{Peak set interpretation}{50}{section*.43}}
\newlabel{:pimp:untargetedpipeline:contextvisualisation:peakinterpretation}{{3.4.2}{50}{Peak set interpretation}{section*.43}{}}
\@writefile{lof}{\contentsline {figure}{\numberline {3.17}{\ignorespaces Peak discovery tool - results}}{51}{figure.caption.40}}
\newlabel{fig:peak_discovery_results}{{3.17}{51}{Peak discovery tool - results}{figure.caption.40}{}}
\@writefile{lof}{\contentsline {figure}{\numberline {3.18}{\ignorespaces Peak set visualisation}}{51}{figure.caption.42}}
\newlabel{fig:peak_set}{{3.18}{51}{Peak set visualisation}{figure.caption.42}{}}
\@writefile{toc}{\contentsline {subsubsection}{Pathway annotation}{51}{section*.45}}
\newlabel{:pimp:untargetedpipeline:contextvisualisation:pathwayannotation}{{3.4.2}{51}{Pathway annotation}{section*.45}{}}
\BKM@entry{id=29,dest={73756273656374696F6E2E332E342E33},srcline={15}}{332E342E33204D6F64756C6520626173656420706970656C696E65}
\citation{parr2004enforcing}
\citation{ONeil2008}
\@writefile{lot}{\contentsline {table}{\numberline {3.1}{\ignorespaces Typical metabolomics results table}}{52}{table.caption.44}}
\newlabel{tab:table_peak_set}{{3.1}{52}{Typical metabolomics results table}{table.caption.44}{}}
\@writefile{toc}{\contentsline {subsection}{\numberline {3.4.3}Module\ based\ pipeline}{52}{subsection.3.4.3}}
\newlabel{c:pimp:untargetedpipeline:modulepipeline}{{3.4.3}{52}{Module\ based\ pipeline}{subsection.3.4.3}{}}
\acro@used@once {orm}{52}{52}{52}
\@writefile{lof}{\contentsline {figure}{\numberline {3.19}{\ignorespaces PiMP modular organisation}}{53}{figure.caption.46}}
\newlabel{fig:module_schema}{{3.19}{53}{PiMP modular organisation}{figure.caption.46}{}}
\@writefile{toc}{\contentsline {subsubsection}{Data capture}{54}{section*.47}}
\newlabel{c:pimp:untargetedpipeline:modulepipeline:datacapture}{{3.4.3}{54}{Data capture}{section*.47}{}}
\@writefile{lof}{\contentsline {figure}{\numberline {3.20}{\ignorespaces PiMP data capture unit}}{54}{figure.caption.48}}
\newlabel{fig:data_capture}{{3.20}{54}{PiMP data capture unit}{figure.caption.48}{}}
\BKM@entry{id=30,dest={73756273656374696F6E2E332E342E34},srcline={21}}{332E342E34204461746120616E616C79736973}
\@writefile{toc}{\contentsline {subsubsection}{Data processing}{55}{section*.49}}
\newlabel{c:pimp:untargetedpipeline:modulepipeline:dataprocessing}{{3.4.3}{55}{Data processing}{section*.49}{}}
\@writefile{toc}{\contentsline {subsubsection}{Data interpretation}{55}{section*.50}}
\newlabel{c:pimp:untargetedpipeline:modulepipeline:datainterpretation}{{3.4.3}{55}{Data interpretation}{section*.50}{}}
\@writefile{toc}{\contentsline {subsection}{\numberline {3.4.4}Data\ analysis}{55}{subsection.3.4.4}}
\newlabel{c:pimp:untargetedpipeline:analsysistools}{{3.4.4}{55}{Data\ analysis}{subsection.3.4.4}{}}
\BKM@entry{id=31,dest={73756273656374696F6E2E332E342E35},srcline={28}}{332E342E3520446174612065786368616E676520616E6420646174612073686172696E67}
\citation{Salek2015}
\@writefile{lof}{\contentsline {figure}{\numberline {3.21}{\ignorespaces PiMP data processing unit}}{56}{figure.caption.51}}
\newlabel{fig:data_processing_module}{{3.21}{56}{PiMP data processing unit}{figure.caption.51}{}}
\@writefile{toc}{\contentsline {subsection}{\numberline {3.4.5}Data\ exchange\ and\ data\ sharing}{57}{subsection.3.4.5}}
\newlabel{c:pimp:untargetedpipeline:dataexchange}{{3.4.5}{57}{Data\ exchange\ and\ data\ sharing}{subsection.3.4.5}{}}
\@writefile{toc}{\contentsline {subsubsection}{Data exchange}{57}{section*.52}}
\newlabel{c:pimp:untargetedpipeline:dataexchange:dataexchange}{{3.4.5}{57}{Data exchange}{section*.52}{}}
\acro@used@once {cosmos}{56}{56}{56}
\@writefile{toc}{\contentsline {subsubsection}{Data sharing}{57}{section*.53}}
\newlabel{c:pimp:untargetedpipeline:dataexchange:datasharing}{{3.4.5}{57}{Data sharing}{section*.53}{}}
\BKM@entry{id=32,dest={73756273656374696F6E2E332E342E36},srcline={35}}{332E342E36204461746120696E746572707265746174696F6E}
\@writefile{toc}{\contentsline {subsection}{\numberline {3.4.6}Data\ interpretation}{58}{subsection.3.4.6}}
\newlabel{c:pimp:untargetedpipeline:datainterpretation}{{3.4.6}{58}{Data\ interpretation}{subsection.3.4.6}{}}
\@writefile{toc}{\contentsline {subsubsection}{Summary page}{59}{section*.54}}
\newlabel{:c:pimp:untargetedpipeline:datainterpretation:summary}{{3.4.6}{59}{Summary page}{section*.54}{}}
\@writefile{lof}{\contentsline {figure}{\numberline {3.22}{\ignorespaces Principal Component Analysis visualisation}}{59}{figure.caption.55}}
\newlabel{fig:pca-summary}{{3.22}{59}{Principal Component Analysis visualisation}{figure.caption.55}{}}
\citation{Stipetic2015}
\citation{Stipetic2015}
\@writefile{lof}{\contentsline {figure}{\numberline {3.23}{\ignorespaces Volcano plot visualisation}}{60}{figure.caption.56}}
\newlabel{fig:volcano}{{3.23}{60}{Volcano plot visualisation}{figure.caption.56}{}}
\@writefile{toc}{\contentsline {subsubsection}{Raw data}{60}{section*.57}}
\newlabel{:c:pimp:untargetedpipeline:datainterpretation:rawdata}{{3.4.6}{60}{Raw data}{section*.57}{}}
\@writefile{toc}{\contentsline {subsubsection}{Statistical analysis}{60}{section*.59}}
\newlabel{:c:pimp:untargetedpipeline:datainterpretation:statanalysis}{{3.4.6}{60}{Statistical analysis}{section*.59}{}}
\@writefile{lof}{\contentsline {figure}{\numberline {3.24}{\ignorespaces Evidence panel figures}}{61}{figure.caption.58}}
\newlabel{fig:peak_evidence}{{3.24}{61}{Evidence panel figures}{figure.caption.58}{}}
\@writefile{lof}{\contentsline {figure}{\numberline {3.25}{\ignorespaces PiMP comparison table}}{61}{figure.caption.60}}
\newlabel{fig:comparison_table}{{3.25}{61}{PiMP comparison table}{figure.caption.60}{}}
\@writefile{toc}{\contentsline {subsubsection}{Biological pathways}{61}{section*.61}}
\newlabel{:c:pimp:untargetedpipeline:datainterpretation:pathways}{{3.4.6}{61}{Biological pathways}{section*.61}{}}
\@writefile{lof}{\contentsline {figure}{\numberline {3.26}{\ignorespaces PiMP pathway visualisation tool}}{62}{figure.caption.62}}
\newlabel{fig:pathway_visu}{{3.26}{62}{PiMP pathway visualisation tool}{figure.caption.62}{}}
\@writefile{toc}{\contentsline {subsubsection}{Metabolites}{62}{section*.63}}
\newlabel{:c:pimp:untargetedpipeline:datainterpretation:pathways}{{3.4.6}{62}{Metabolites}{section*.63}{}}
\newlabel{RF1}{64}
\newlabel{fig:metabolite_tab}{{\caption@xref {fig:metabolite_tab}{ on input line 87}}{64}{Metabolites}{figure.caption.64}{}}
\@writefile{lof}{\contentsline {figure}{\numberline {3.27}{\ignorespaces PiMP metabolites tab}}{64}{figure.caption.64}}
\@writefile{lof}{\contentsline {figure}{\numberline {3.28}{\ignorespaces PiMP compound card}}{65}{figure.caption.65}}
\newlabel{fig:compound_card}{{3.28}{65}{PiMP compound card}{figure.caption.65}{}}
\@writefile{lof}{\contentsline {figure}{\numberline {3.29}{\ignorespaces PiMP evidence cards organisation}}{66}{figure.caption.66}}
\newlabel{fig:peak_card}{{3.29}{66}{PiMP evidence cards organisation}{figure.caption.66}{}}
\@writefile{lof}{\contentsline {figure}{\numberline {3.30}{\ignorespaces PiMP metabolites tab search tools}}{66}{figure.caption.67}}
\newlabel{fig:search_tool}{{3.30}{66}{PiMP metabolites tab search tools}{figure.caption.67}{}}
\BKM@entry{id=33,dest={73656374696F6E2E332E35},srcline={42}}{332E352044697363757373696F6E}
\citation{Smith:2006}
\citation{Scheltema:2011}
\citation{Creek:2012}
\citation{Katajamaa:2006}
\citation{Giacomoni:2015}
\citation{Xia:2012}
\citation{Clasquin:2012}
\citation{Tautenhahn2012}
\@writefile{toc}{\contentsline {section}{\numberline {3.5}Discussion}{67}{section.3.5}}
\newlabel{c:pimp:results}{{3.5}{67}{Discussion}{section.3.5}{}}
\citation{Smith:2006}
\citation{Scheltema:2011}
\citation{Creek:2012}
\citation{Katajamaa:2006}
\citation{Clasquin:2012}
\citation{Smith:2006}
\citation{Scheltema:2011}
\citation{Creek:2012}
\citation{Katajamaa:2006}
\citation{Clasquin:2012}
\citation{Tautenhahn2012}
\citation{Xia:2012}
\citation{Giacomoni:2015}
\citation{Smith:2006}
\citation{Scheltema:2011}
\citation{Creek:2012}
\citation{Katajamaa:2006}
\citation{Clasquin:2012}
\citation{Tautenhahn2012}
\citation{Xia:2012}
\citation{Giacomoni:2015}
\newlabel{RF2}{69}
\@writefile{lot}{\contentsline {table}{\numberline {3.2}{\ignorespaces Support comparison of non-commercial metabolomics data processing pipelines}}{69}{table.caption.68}}
\newlabel{tab:metabotoolsupport}{{3.2}{69}{Support comparison of non-commercial metabolomics data processing pipelines}{table.caption.68}{}}
\BKM@entry{id=34,dest={73656374696F6E2E332E36},srcline={49}}{332E3620436F6E636C7573696F6E}
\@writefile{toc}{\contentsline {section}{\numberline {3.6}Conclusion}{70}{section.3.6}}
\newlabel{c:pimp:results}{{3.6}{70}{Conclusion}{section.3.6}{}}
\BKM@entry{id=35,dest={636861707465722E34},srcline={1}}{3420457874656E646564206D657461626F6C6F6D69637320776F726B666C6F7720666F722062696F6C6F676963616C20736369656E636573}
\BKM@entry{id=36,dest={73656374696F6E2E342E31},srcline={7}}{342E3120496E74726F64756374696F6E}
\citation{Alonso2015}
\citation{Goodacre2007}
\@writefile{toc}{\contentsline {chapter}{\numberline {4}Extended metabolomics workflow for biological sciences}{71}{chapter.4}}
\@writefile{lof}{\addvspace {10\p@ }}
\@writefile{lot}{\addvspace {10\p@ }}
\newlabel{c:extendedpimp}{{4}{71}{Extended metabolomics workflow for biological sciences}{chapter.4}{}}
\@writefile{toc}{\contentsline {section}{\numberline {4.1}Introduction}{71}{section.4.1}}
\newlabel{c:extendedpimp:intro}{{4.1}{71}{Introduction}{section.4.1}{}}
\citation{Bowen2010}
\citation{VanderHooft2012}
\citation{Kell2004}
\BKM@entry{id=37,dest={73656374696F6E2E342E32},srcline={14}}{342E322052656C6174656420776F726B}
\citation{Haug2013}
\citation{Horai2010}
\citation{Ridder2012}
\citation{Ridder2013}
\citation{Auber2012}
\citation{Shannon2003}
\acro@used@once {dda}{72}{72}{72}
\acro@used@once {dia}{72}{72}{72}
\@writefile{toc}{\contentsline {section}{\numberline {4.2}Related work}{72}{section.4.2}}
\newlabel{c:extendedpimp:relatedwork}{{4.2}{72}{Related work}{section.4.2}{}}
\BKM@entry{id=38,dest={73656374696F6E2E342E33},srcline={22}}{342E3320537570706F7274696E6720737475647920646F63756D656E746174696F6E}
\BKM@entry{id=39,dest={73756273656374696F6E2E342E332E31},srcline={11}}{342E332E312050726F6A656374206D616E6167656D656E742073797374656D}
\@writefile{toc}{\contentsline {section}{\numberline {4.3}Supporting study documentation}{74}{section.4.3}}
\newlabel{c:extendedpimp:studydesign}{{4.3}{74}{Supporting study documentation}{section.4.3}{}}
\@writefile{lof}{\contentsline {figure}{\numberline {4.1}{\ignorespaces Area of limitation of a standard untargeted metabolmics workflow}}{74}{figure.caption.69}}
\newlabel{fig:met-workflow-documentation}{{4.1}{74}{Area of limitation of a standard untargeted metabolmics workflow}{figure.caption.69}{}}
\@writefile{toc}{\contentsline {subsection}{\numberline {4.3.1}Project management system}{75}{subsection.4.3.1}}
\newlabel{c:extendedpimp:studydesign:managementsystem}{{4.3.1}{75}{Project management system}{subsection.4.3.1}{}}
\@writefile{toc}{\contentsline {subsubsection}{Data structure}{75}{section*.70}}
\newlabel{c:extendedpimp:studydesign:managementsystem:data}{{4.3.1}{75}{Data structure}{section*.70}{}}
\@writefile{lof}{\contentsline {figure}{\numberline {4.2}{\ignorespaces Management system database strcuture}}{76}{figure.caption.71}}
\newlabel{fig:management_sys_data_structure}{{4.2}{76}{Management system database strcuture}{figure.caption.71}{}}
\acro@used@once {gcms}{76}{76}{76}
\@writefile{toc}{\contentsline {subsubsection}{Web-enabled tool}{77}{section*.72}}
\newlabel{c:extendedpimp:studydesign:managementsystem:webtool}{{4.3.1}{77}{Web-enabled tool}{section*.72}{}}
\BKM@entry{id=40,dest={73756273656374696F6E2E342E332E32},srcline={18}}{342E332E322042696F6368656D6963616C206C696272617279}
\citation{Merlet2016}
\@writefile{lof}{\contentsline {figure}{\numberline {4.3}{\ignorespaces Management system user interface}}{78}{figure.caption.73}}
\newlabel{fig:management_sys_screenshot}{{4.3}{78}{Management system user interface}{figure.caption.73}{}}
\citation{Cottret2010}
\citation{Kanehisa2014}
\citation{Hastings2013}
\citation{Kim2016}
\citation{Salek2015}
\@writefile{toc}{\contentsline {subsection}{\numberline {4.3.2}Biochemical library}{79}{subsection.4.3.2}}
\newlabel{c:extendedpimp:studydesign:biochemicallibrary}{{4.3.2}{79}{Biochemical library}{subsection.4.3.2}{}}
\@writefile{toc}{\contentsline {subsubsection}{Metabolite identifiers}{79}{section*.74}}
\newlabel{c:extendedpimp:studydesign:biochemicallibrary:metid}{{4.3.2}{79}{Metabolite identifiers}{section*.74}{}}
\@writefile{toc}{\contentsline {subsubsection}{Metabolite mapping and communication protocol}{80}{section*.75}}
\newlabel{c:extendedpimp:studydesign:biochemicallibrary:metmapcom}{{4.3.2}{80}{Metabolite mapping and communication protocol}{section*.75}{}}
\@writefile{lof}{\contentsline {figure}{\numberline {4.4}{\ignorespaces Chemical library and network database communication protocol}}{80}{figure.caption.76}}
\newlabel{fig:pimp_metex_com}{{4.4}{80}{Chemical library and network database communication protocol}{figure.caption.76}{}}
\@writefile{toc}{\contentsline {subsubsection}{Metabolite mapping response}{80}{section*.77}}
\newlabel{c:extendedpimp:studydesign:biochemicallibrary:metmapresponse}{{4.3.2}{80}{Metabolite mapping response}{section*.77}{}}
\@writefile{toc}{\contentsline {subsubsection}{Metabolite mapping results}{81}{section*.78}}
\newlabel{c:extendedpimp:studydesign:biochemicallibrary:metmapresult}{{4.3.2}{81}{Metabolite mapping results}{section*.78}{}}
\@writefile{lof}{\contentsline {figure}{\numberline {4.5}{\ignorespaces Glasgow Polyomics standard library table}}{82}{figure.caption.79}}
\newlabel{fig:gp_chemical_library}{{4.5}{82}{Glasgow Polyomics standard library table}{figure.caption.79}{}}
\@writefile{lof}{\contentsline {figure}{\numberline {4.6}{\ignorespaces MetExplore metabolite table}}{82}{figure.caption.80}}
\newlabel{fig:metex_metabolite_tab}{{4.6}{82}{MetExplore metabolite table}{figure.caption.80}{}}
\@writefile{lof}{\contentsline {figure}{\numberline {4.7}{\ignorespaces MetExplore pathway table}}{82}{figure.caption.81}}
\newlabel{fig:metex_pathway_tab}{{4.7}{82}{MetExplore pathway table}{figure.caption.81}{}}
\@writefile{lof}{\contentsline {figure}{\numberline {4.8}{\ignorespaces MetExplore visualisation of a reconstructed network}}{83}{figure.caption.82}}
\newlabel{fig:metex_network_viz}{{4.8}{83}{MetExplore visualisation of a reconstructed network}{figure.caption.82}{}}
\BKM@entry{id=41,dest={73656374696F6E2E342E34},srcline={29}}{342E3420467261676D656E746174696F6E206461746120616E616C79736973}
\citation{Vogeser2007}
\citation{Doerr2014}
\@writefile{toc}{\contentsline {section}{\numberline {4.4}Fragmentation data analysis}{84}{section.4.4}}
\newlabel{c:extendedpimp:fragmentation}{{4.4}{84}{Fragmentation data analysis}{section.4.4}{}}
\@writefile{lof}{\contentsline {figure}{\numberline {4.9}{\ignorespaces Tandem MS spectra}}{84}{figure.caption.83}}
\newlabel{fig:frag_tree}{{4.9}{84}{Tandem MS spectra}{figure.caption.83}{}}
\BKM@entry{id=42,dest={73756273656374696F6E2E342E342E31},srcline={25}}{342E342E3120416E6E6F746174696F6E20746F6F6C20616E64206C696272617279}
\citation{Horai2010}
\citation{Merkel2014}
\BKM@entry{id=43,dest={73756273656374696F6E2E342E342E32},srcline={30}}{342E342E32204672416E4B2061726368697465637475726520616E642064657369676E}
\@writefile{lof}{\contentsline {figure}{\numberline {4.10}{\ignorespaces Metabolomics workflow improvement area using fragmention data}}{85}{figure.caption.84}}
\newlabel{fig:metabolomics_workflow_fragmentation}{{4.10}{85}{Metabolomics workflow improvement area using fragmention data}{figure.caption.84}{}}
\acro@used@once {frank}{84}{84}{84}
\@writefile{toc}{\contentsline {subsection}{\numberline {4.4.1}Annotation tool and library}{85}{subsection.4.4.1}}
\newlabel{c:extendedpimp:fragmentation:annotation}{{4.4.1}{85}{Annotation tool and library}{subsection.4.4.1}{}}
\acro@used@once {nist}{85}{85}{85}
\BKM@entry{id=44,dest={73756273656374696F6E2E342E342E33},srcline={37}}{342E342E332044617461206361707475726520616E642076697375616C69736174696F6E}
\BKM@entry{id=45,dest={73756273656374696F6E2E342E342E34},srcline={58}}{342E342E342050694D502D4672416E4B20696E746567726174696F6E}
\@writefile{toc}{\contentsline {subsection}{\numberline {4.4.2}FrAnK architecture and design}{86}{subsection.4.4.2}}
\newlabel{c:extendedpimp:fragmentation:design}{{4.4.2}{86}{FrAnK architecture and design}{subsection.4.4.2}{}}
\@writefile{toc}{\contentsline {subsection}{\numberline {4.4.3}Data capture and visualisation}{86}{subsection.4.4.3}}
\newlabel{c:extendedpimp:fragmentation:integration}{{4.4.3}{86}{Data capture and visualisation}{subsection.4.4.3}{}}
\@writefile{toc}{\contentsline {subsection}{\numberline {4.4.4}PiMP-FrAnK integration}{86}{subsection.4.4.4}}
\newlabel{c:extendedpimp:fragmentation:integration}{{4.4.4}{86}{PiMP-FrAnK integration}{subsection.4.4.4}{}}
\@writefile{lof}{\contentsline {figure}{\numberline {4.11}{\ignorespaces FrAnK fragment spectrum visualisation}}{87}{figure.caption.85}}
\newlabel{fig:FrAnK_spectra}{{4.11}{87}{FrAnK fragment spectrum visualisation}{figure.caption.85}{}}
\@writefile{lof}{\contentsline {figure}{\numberline {4.12}{\ignorespaces FrAnK annotation page}}{87}{figure.caption.86}}
\newlabel{fig:FrAnK_annot_page}{{4.12}{87}{FrAnK annotation page}{figure.caption.86}{}}
\@writefile{toc}{\contentsline {subsubsection}{Data structure connection}{87}{section*.87}}
\newlabel{c:extendedpimp:fragmentation:integration:datastructure}{{4.4.4}{87}{Data structure connection}{section*.87}{}}
\@writefile{lof}{\contentsline {figure}{\numberline {4.13}{\ignorespaces PiMP - FrAnK database join at the project level}}{88}{figure.caption.88}}
\newlabel{fig:pimp_frank_project_connection}{{4.13}{88}{PiMP - FrAnK database join at the project level}{figure.caption.88}{}}
\@writefile{lof}{\contentsline {figure}{\numberline {4.14}{\ignorespaces PiMP - FrAnK database join at the peak level}}{88}{figure.caption.89}}
\newlabel{fig:pimp_frank_peak_connection}{{4.14}{88}{PiMP - FrAnK database join at the peak level}{figure.caption.89}{}}
\@writefile{toc}{\contentsline {subsubsection}{Integrated data analysis pipeline}{89}{section*.90}}
\newlabel{c:extendedpimp:fragmentation:integration:analysispipeline}{{4.4.4}{89}{Integrated data analysis pipeline}{section*.90}{}}
\@writefile{lof}{\contentsline {figure}{\numberline {4.15}{\ignorespaces Comparison of MS\textsuperscript  {1} peak between MS and MS/MS acquisition}}{89}{figure.caption.91}}
\newlabel{fig:MS_vs_MSMS}{{4.15}{89}{Comparison of MS\textsuperscript {1} peak between MS and MS/MS acquisition}{figure.caption.91}{}}
\@writefile{toc}{\contentsline {subsubsection}{Integrated data visualisation}{89}{section*.93}}
\newlabel{c:extendedpimp:fragmentation:integration:results}{{4.4.4}{89}{Integrated data visualisation}{section*.93}{}}
\@writefile{lof}{\contentsline {figure}{\numberline {4.16}{\ignorespaces PiMP chained pipeline}}{90}{figure.caption.92}}
\newlabel{fig:chain_pipeline}{{4.16}{90}{PiMP chained pipeline}{figure.caption.92}{}}
\@writefile{lof}{\contentsline {figure}{\numberline {4.17}{\ignorespaces Fragmentation data in PiMP results environment}}{90}{figure.caption.94}}
\newlabel{fig:FrAnK_peak_tab}{{4.17}{90}{Fragmentation data in PiMP results environment}{figure.caption.94}{}}
\BKM@entry{id=46,dest={73656374696F6E2E342E35},srcline={36}}{342E352042696F6C6F676963616C206E6574776F726B20616E616C79736973}
\BKM@entry{id=47,dest={73756273656374696F6E2E342E352E31},srcline={4}}{342E352E31204E6574776F726B207265636F6E737472756374696F6E}
\@writefile{lof}{\contentsline {figure}{\numberline {4.18}{\ignorespaces Fragmentation data in peak card}}{91}{figure.caption.95}}
\newlabel{fig:peak_card_frag}{{4.18}{91}{Fragmentation data in peak card}{figure.caption.95}{}}
\@writefile{toc}{\contentsline {section}{\numberline {4.5}Biological network analysis}{91}{section.4.5}}
\newlabel{c:extendedpimp:network}{{4.5}{91}{Biological network analysis}{section.4.5}{}}
\@writefile{toc}{\contentsline {subsection}{\numberline {4.5.1}Network reconstruction}{92}{subsection.4.5.1}}
\newlabel{c:extendedpimp:network:analysis}{{4.5.1}{92}{Network reconstruction}{subsection.4.5.1}{}}
\@writefile{lof}{\contentsline {figure}{\numberline {4.19}{\ignorespaces Integrated network analysis form}}{92}{figure.caption.96}}
\newlabel{fig:pimp_network_form}{{4.19}{92}{Integrated network analysis form}{figure.caption.96}{}}
\BKM@entry{id=48,dest={73756273656374696F6E2E342E352E32},srcline={30}}{342E352E32204E6574776F726B2076697375616C69736174696F6E}
\citation{Bostock2011}
\@writefile{lof}{\contentsline {figure}{\numberline {4.20}{\ignorespaces PiMP - MetExplore communication}}{93}{figure.caption.97}}
\newlabel{fig:pimp_network_com}{{4.20}{93}{PiMP - MetExplore communication}{figure.caption.97}{}}
\@writefile{toc}{\contentsline {subsection}{\numberline {4.5.2}Network visualisation}{93}{subsection.4.5.2}}
\newlabel{c:extendedpimp:network:integration}{{4.5.2}{93}{Network visualisation}{subsection.4.5.2}{}}
\@writefile{lof}{\contentsline {figure}{\numberline {4.21}{\ignorespaces Network visualsisation and filter tools}}{94}{figure.caption.98}}
\newlabel{fig:network_side_compounds}{{4.21}{94}{Network visualsisation and filter tools}{figure.caption.98}{}}
\newlabel{RF3}{95}
\newlabel{fig:network_tab_int}{{\caption@xref {fig:network_tab_int}{ on input line 50}}{95}{Network visualisation}{figure.caption.99}{}}
\@writefile{lof}{\contentsline {figure}{\numberline {4.22}{\ignorespaces PiMP integrated network visualisation}}{95}{figure.caption.99}}
\BKM@entry{id=49,dest={73656374696F6E2E342E36},srcline={43}}{342E362044697363757373696F6E}
\@writefile{toc}{\contentsline {section}{\numberline {4.6}Discussion}{96}{section.4.6}}
\newlabel{c:extendedpimp:results}{{4.6}{96}{Discussion}{section.4.6}{}}
\citation{Scholz}
\citation{AdamJCarrol2010}
\citation{Haug2013}
\citation{Ferry-Dumazet2011}
\citation{metaboworkbench}
\citation{Shannon2003}
\citation{Auber2012}
\BKM@entry{id=50,dest={73656374696F6E2E342E37},srcline={50}}{342E3720436F6E636C7573696F6E}
\@writefile{toc}{\contentsline {section}{\numberline {4.7}Conclusion}{99}{section.4.7}}
\newlabel{c:extendedpimp:conclusion}{{4.7}{99}{Conclusion}{section.4.7}{}}
\BKM@entry{id=51,dest={636861707465722E35},srcline={1}}{3520496E74656772617469766520616E616C79736973206F66206F6D696373206461746173657473207573696E672061206E6574776F726B20617070726F616368}
\BKM@entry{id=52,dest={73656374696F6E2E352E31},srcline={7}}{352E3120496E74726F64756374696F6E}
\citation{VanderHooft2016}
\@writefile{toc}{\contentsline {chapter}{\numberline {5}Integrative analysis of omics datasets using a network approach}{100}{chapter.5}}
\@writefile{lof}{\addvspace {10\p@ }}
\@writefile{lot}{\addvspace {10\p@ }}
\newlabel{c:omicsintegration}{{5}{100}{Integrative analysis of omics datasets using a network approach}{chapter.5}{}}
\@writefile{toc}{\contentsline {section}{\numberline {5.1}Introduction}{100}{section.5.1}}
\newlabel{c:omicsintegration:intro}{{5.1}{100}{Introduction}{section.5.1}{}}
\citation{Grando2014}
\citation{Schuller2009}
\citation{Alkondon1997}
\BKM@entry{id=53,dest={73656374696F6E2E352E32},srcline={14}}{352E322052656C6174656420776F726B}
\citation{Urano2010}
\citation{Canuel2015}
\citation{LeCao2008}
\citation{Joyce2006}
\citation{Gomez-Cabrero2014}
\citation{Palsson2010}
\@writefile{toc}{\contentsline {section}{\numberline {5.2}Related work}{101}{section.5.2}}
\newlabel{c:omicsintegration:relatedwork}{{5.2}{101}{Related work}{section.5.2}{}}
\BKM@entry{id=54,dest={73656374696F6E2E352E33},srcline={20}}{352E332053747564792064657369676E}
\@writefile{toc}{\contentsline {section}{\numberline {5.3}Study design}{102}{section.5.3}}
\newlabel{c:omicsintegration:studydesign}{{5.3}{102}{Study design}{section.5.3}{}}
\BKM@entry{id=55,dest={73656374696F6E2E352E34},srcline={26}}{352E342044617461206163717569736974696F6E}
\acro@used@once {a7nachr}{102}{102}{102}
\@writefile{toc}{\contentsline {section}{\numberline {5.4}Data acquisition}{103}{section.5.4}}
\newlabel{c:omicsintegration:dataacquisition}{{5.4}{103}{Data acquisition}{section.5.4}{}}
\@writefile{lot}{\contentsline {table}{\numberline {5.1}{\ignorespaces LC elution gradient}}{104}{table.caption.100}}
\newlabel{tab:elution_gradient}{{5.1}{104}{LC elution gradient}{table.caption.100}{}}
\BKM@entry{id=56,dest={73656374696F6E2E352E35},srcline={33}}{352E35204D657461626F6C6F6D696373206461746120616E616C79736973}
\BKM@entry{id=57,dest={73756273656374696F6E2E352E352E31},srcline={21}}{352E352E31205175616C69747920636F6E74726F6C}
\@writefile{toc}{\contentsline {section}{\numberline {5.5}Metabolomics data analysis}{105}{section.5.5}}
\newlabel{c:omicsintegration:metaboanalysis}{{5.5}{105}{Metabolomics data analysis}{section.5.5}{}}
\@writefile{lot}{\contentsline {table}{\numberline {5.2}{\ignorespaces Experiment design}}{105}{table.caption.101}}
\newlabel{tab:experiment_design}{{5.2}{105}{Experiment design}{table.caption.101}{}}
\@writefile{toc}{\contentsline {subsection}{\numberline {5.5.1}Quality control}{105}{subsection.5.5.1}}
\newlabel{c:omicsintegration:metaboanalysis:qc}{{5.5.1}{105}{Quality control}{subsection.5.5.1}{}}
\@writefile{lof}{\contentsline {figure}{\numberline {5.1}{\ignorespaces Quality control of TICs}}{106}{figure.caption.102}}
\newlabel{fig:pos_tic_stats}{{5.1}{106}{Quality control of TICs}{figure.caption.102}{}}
\BKM@entry{id=58,dest={73756273656374696F6E2E352E352E32},srcline={78}}{352E352E322054696D6520636F7572736520616E616C79736973}
\@writefile{lof}{\contentsline {figure}{\numberline {5.2}{\ignorespaces Principal component analysis plot}}{107}{figure.caption.103}}
\newlabel{fig:pca}{{5.2}{107}{Principal component analysis plot}{figure.caption.103}{}}
\newlabel{RF4}{108}
\@writefile{lot}{\contentsline {table}{\numberline {5.3}{\ignorespaces List of standard compounds significantly changing}}{108}{table.caption.104}}
\newlabel{tab:standardlist_small}{{5.3}{108}{List of standard compounds significantly changing}{table.caption.104}{}}
\@writefile{toc}{\contentsline {subsection}{\numberline {5.5.2}Time course analysis}{109}{subsection.5.5.2}}
\newlabel{c:omicsintegration:metaboanalysis:timecourse}{{5.5.2}{109}{Time course analysis}{subsection.5.5.2}{}}
\@writefile{toc}{\contentsline {subsubsection}{Control class}{109}{section*.105}}
\newlabel{c:omicsintegration:metaboanalysis:timecourse:control}{{5.5.2}{109}{Control class}{section*.105}{}}
\@writefile{lof}{\contentsline {figure}{\numberline {5.3}{\ignorespaces Volcano plot for control group time course analysis}}{109}{figure.caption.106}}
\newlabel{fig:volcano_C4_24}{{5.3}{109}{Volcano plot for control group time course analysis}{figure.caption.106}{}}
\BKM@entry{id=59,dest={73756273656374696F6E2E352E352E33},srcline={119}}{352E352E332042696F6C6F676963616C20636C61737320616E616C79736973}
\@writefile{toc}{\contentsline {subsubsection}{PHA activated class }{110}{section*.107}}
\newlabel{c:omicsintegration:metaboanalysis:timecourse:pha}{{5.5.2}{110}{PHA activated class}{section*.107}{}}
\@writefile{lof}{\contentsline {figure}{\numberline {5.4}{\ignorespaces Volcano plots for PHA-activated group time course analysis}}{110}{figure.caption.108}}
\newlabel{fig:volcanoPHA4_9_24}{{5.4}{110}{Volcano plots for PHA-activated group time course analysis}{figure.caption.108}{}}
\@writefile{toc}{\contentsline {subsubsection}{Time course comparison}{110}{section*.109}}
\newlabel{c:omicsintegration:metaboanalysis:timecourse:comparison}{{5.5.2}{110}{Time course comparison}{section*.109}{}}
\@writefile{toc}{\contentsline {subsection}{\numberline {5.5.3}Biological class analysis}{110}{subsection.5.5.3}}
\newlabel{c:omicsintegration:metaboanalysis:global}{{5.5.3}{110}{Biological class analysis}{subsection.5.5.3}{}}
\@writefile{lof}{\contentsline {figure}{\numberline {5.5}{\ignorespaces  Average intensities of the 4 identified metabolites significantly changing over time.\relax }}{111}{figure.caption.110}}
\newlabel{fig:time_course_std_av}{{5.5}{111}{Average intensities of the 4 identified metabolites significantly changing over time.\relax }{figure.caption.110}{}}
\@writefile{lof}{\contentsline {figure}{\numberline {5.6}{\ignorespaces  Volcano plots showing the differences found between the control and PHA-activated group at each respective time point.\relax }}{111}{figure.caption.111}}
\newlabel{fig:volcano_time_points}{{5.6}{111}{Volcano plots showing the differences found between the control and PHA-activated group at each respective time point.\relax }{figure.caption.111}{}}
\BKM@entry{id=60,dest={73756273656374696F6E2E352E352E34},srcline={142}}{352E352E34205374616E6461726420636F6D706F756E647320616E616C79736973}
\BKM@entry{id=61,dest={73656374696F6E2E352E36},srcline={40}}{352E3620524E412D736571206461746120616E616C79736973}
\@writefile{lof}{\contentsline {figure}{\numberline {5.7}{\ignorespaces  Average intensities of the two metabolites significantly different in the two biological groups.\relax }}{112}{figure.caption.112}}
\newlabel{fig:time_points_av}{{5.7}{112}{Average intensities of the two metabolites significantly different in the two biological groups.\relax }{figure.caption.112}{}}
\@writefile{toc}{\contentsline {subsection}{\numberline {5.5.4}Standard compounds analysis}{112}{subsection.5.5.4}}
\newlabel{c:omicsintegration:metaboanalysis:std}{{5.5.4}{112}{Standard compounds analysis}{subsection.5.5.4}{}}
\@writefile{toc}{\contentsline {section}{\numberline {5.6}RNA-seq data analysis}{112}{section.5.6}}
\newlabel{c:omicsintegration:rnaanalysis}{{5.6}{112}{RNA-seq data analysis}{section.5.6}{}}
\BKM@entry{id=62,dest={73756273656374696F6E2E352E362E31},srcline={3}}{352E362E312044617461206163717569736974696F6E20616E6420616E616C7973697320706970656C696E65}
\citation{Martin2011}
\citation{Joshi2011}
\citation{Kim2015}
\citation{Trapnell2012}
\citation{Cock2010}
\@writefile{lof}{\contentsline {figure}{\numberline {5.8}{\ignorespaces Extracted ion chromatograms}}{113}{figure.caption.113}}
\newlabel{fig:peaks_stds_ex}{{5.8}{113}{Extracted ion chromatograms}{figure.caption.113}{}}
\@writefile{toc}{\contentsline {subsection}{\numberline {5.6.1}Data acquisition and analysis pipeline}{113}{subsection.5.6.1}}
\newlabel{c:omicsintegration:rnaanalysis:acquisition}{{5.6.1}{113}{Data acquisition and analysis pipeline}{subsection.5.6.1}{}}
\BKM@entry{id=63,dest={73756273656374696F6E2E352E362E32},srcline={25}}{352E362E322047656E65206E6574776F726B73}
\citation{Warde-Farley2010}
\@writefile{lof}{\contentsline {figure}{\numberline {5.9}{\ignorespaces Average base call accuracy}}{114}{figure.caption.114}}
\newlabel{fig:phred_score}{{5.9}{114}{Average base call accuracy}{figure.caption.114}{}}
\@writefile{toc}{\contentsline {subsection}{\numberline {5.6.2}Gene networks}{114}{subsection.5.6.2}}
\newlabel{c:omicsintegration:rnaanalysis:networks}{{5.6.2}{114}{Gene networks}{subsection.5.6.2}{}}
\BKM@entry{id=64,dest={73656374696F6E2E352E37},srcline={47}}{352E3720496E74656772617469766520616E616C79736973}
\@writefile{lof}{\contentsline {figure}{\numberline {5.10}{\ignorespaces Gene association integrated netowrk}}{115}{figure.caption.115}}
\newlabel{fig:network_Cont4_24}{{5.10}{115}{Gene association integrated netowrk}{figure.caption.115}{}}
\BKM@entry{id=65,dest={73756273656374696F6E2E352E372E31},srcline={11}}{352E372E31204D756C7469206F6D696373206E6574776F726B207265636F6E737472756374696F6E}
\citation{Thiele2013}
\citation{Huang2008}
\citation{Aken2016}
\citation{Maglott2005}
\@writefile{toc}{\contentsline {section}{\numberline {5.7}Integrative analysis}{116}{section.5.7}}
\newlabel{c:omicsintegration:integrativeanalysis}{{5.7}{116}{Integrative analysis}{section.5.7}{}}
\@writefile{toc}{\contentsline {subsection}{\numberline {5.7.1}Multi omics network reconstruction}{116}{subsection.5.7.1}}
\newlabel{c:omicsintegration:integrativeanalysis:network}{{5.7.1}{116}{Multi omics network reconstruction}{subsection.5.7.1}{}}
\@writefile{toc}{\contentsline {subsubsection}{Gene mapping}{116}{section*.116}}
\newlabel{c:omicsintegration:integrativeanalysis:network:gene}{{5.7.1}{116}{Gene mapping}{section*.116}{}}
\@writefile{lof}{\contentsline {figure}{\numberline {5.11}{\ignorespaces Reconstructed metabolic network from gene expression data}}{117}{figure.caption.117}}
\newlabel{fig:metabolicNetworkStep1}{{5.11}{117}{Reconstructed metabolic network from gene expression data}{figure.caption.117}{}}
\BKM@entry{id=66,dest={73656374696F6E2E352E38},srcline={54}}{352E382044697363757373696F6E}
\@writefile{toc}{\contentsline {subsubsection}{Metabolite mapping}{118}{section*.118}}
\newlabel{c:omicsintegration:integrativeanalysis:network:metabo}{{5.7.1}{118}{Metabolite mapping}{section*.118}{}}
\@writefile{lof}{\contentsline {figure}{\numberline {5.12}{\ignorespaces Integrated multi-omics metabolic network}}{118}{figure.caption.119}}
\newlabel{fig:metabolicNetworkStep2}{{5.12}{118}{Integrated multi-omics metabolic network}{figure.caption.119}{}}
\citation{Gomez-Cabrero2014}
\citation{Tonstad2009}
\citation{Aldaham2015}
\@writefile{toc}{\contentsline {section}{\numberline {5.8}Discussion}{119}{section.5.8}}
\newlabel{c:omicsintegration:results}{{5.8}{119}{Discussion}{section.5.8}{}}
\citation{VanderHeiden2011}
\citation{Fuchs2005}
\acro@used@once {crp}{119}{119}{119}
\@writefile{lof}{\contentsline {figure}{\numberline {5.13}{\ignorespaces  Average intensities of metabolites found in the first cluster identified in the network.\relax }}{121}{figure.caption.120}}
\newlabel{fig:ribonucleoside}{{5.13}{121}{Average intensities of metabolites found in the first cluster identified in the network.\relax }{figure.caption.120}{}}
\citation{Cavill2016}
\citation{Palsson2010}
\BKM@entry{id=67,dest={73656374696F6E2E352E39},srcline={61}}{352E3920436F6E636C7573696F6E}
\@writefile{lof}{\contentsline {figure}{\numberline {5.14}{\ignorespaces Average intensities of amino acids}}{122}{figure.caption.121}}
\newlabel{fig:amino_acids}{{5.14}{122}{Average intensities of amino acids}{figure.caption.121}{}}
\@writefile{toc}{\contentsline {section}{\numberline {5.9}Conclusion}{123}{section.5.9}}
\newlabel{c:omicsintegration:conclusion}{{5.9}{123}{Conclusion}{section.5.9}{}}
\BKM@entry{id=68,dest={636861707465722E36},srcline={1}}{362047656E6572616C2064697363757373696F6E}
\@writefile{toc}{\contentsline {chapter}{\numberline {6}General discussion}{124}{chapter.6}}
\@writefile{lof}{\addvspace {10\p@ }}
\@writefile{lot}{\addvspace {10\p@ }}
\newlabel{c:discussion}{{6}{124}{General discussion}{chapter.6}{}}
\citation{Misra2016}
\citation{Weber2017}
\citation{Palsson2010}
\citation{Gomez-Cabrero2014}
\BKM@entry{id=69,dest={617070656E6469782E41},srcline={1}}{412050694D50206C6962726172696573}
\BKM@entry{id=70,dest={73656374696F6E2E412E31},srcline={4}}{412E312052206C6962726172696573}
\@writefile{toc}{\contentsline {chapter}{\numberline {A}PiMP libraries}{129}{appendix.A}}
\@writefile{lof}{\addvspace {10\p@ }}
\@writefile{lot}{\addvspace {10\p@ }}
\newlabel{a:appendix}{{A}{129}{PiMP libraries}{appendix.A}{}}
\@writefile{toc}{\contentsline {section}{\numberline {A.1}R libraries}{129}{section.A.1}}
\newlabel{a:appendix:R}{{A.1}{129}{R libraries}{section.A.1}{}}
\BKM@entry{id=71,dest={73656374696F6E2E412E32},srcline={108}}{412E3220507974686F6E206C6962726172696573}
\@writefile{toc}{\contentsline {section}{\numberline {A.2}Python libraries}{131}{section.A.2}}
\newlabel{a:appendix:python}{{A.2}{131}{Python libraries}{section.A.2}{}}
\BKM@entry{id=72,dest={73656374696F6E2E412E33},srcline={154}}{412E33204A617661536372697074206C6962726172696573}
\@writefile{toc}{\contentsline {section}{\numberline {A.3}JavaScript libraries}{132}{section.A.3}}
\newlabel{a:appendix:javascript}{{A.3}{132}{JavaScript libraries}{section.A.3}{}}
\BKM@entry{id=73,dest={617070656E6469782E42},srcline={167}}{42204C697374206F66205374616E6461726420636F6D706F756E6473}
\@writefile{toc}{\contentsline {chapter}{\numberline {B}List of Standard compounds}{133}{appendix.B}}
\@writefile{lof}{\addvspace {10\p@ }}
\@writefile{lot}{\addvspace {10\p@ }}
\newlabel{a:appendix:standard}{{B}{133}{List of Standard compounds}{appendix.B}{}}
\newlabel{RF5}{134}
\newlabel{RF6}{135}
\newlabel{RF7}{136}
\newlabel{RF8}{137}
\@writefile{lot}{\contentsline {table}{\numberline {B.1}{\ignorespaces  List of metabolite identified against standard compounds.\relax }}{137}{table.caption.125}}
\newlabel{appendix:standardlist_full}{{B.1}{137}{List of metabolite identified against standard compounds.\relax }{table.caption.125}{}}
\BKM@entry{id=74,dest={617070656E6469782E43},srcline={292}}{4320496E7465677261746564206E6574776F726B2070617468776179206C697374}
\@writefile{toc}{\contentsline {chapter}{\numberline {C}Integrated network pathway list}{138}{appendix.C}}
\@writefile{lof}{\addvspace {10\p@ }}
\@writefile{lot}{\addvspace {10\p@ }}
\newlabel{a:appendix:pathwaylist}{{C}{138}{Integrated network pathway list}{appendix.C}{}}
\@writefile{lot}{\contentsline {table}{\numberline {C.1}{\ignorespaces  List of pathways covered by the network reconstructed from the differentially expressed genes.\relax }}{139}{table.caption.127}}
\newlabel{appendix:pathwaylist}{{C.1}{139}{List of pathways covered by the network reconstructed from the differentially expressed genes.\relax }{table.caption.127}{}}
\BKM@entry{id=75,dest={617070656E6469782E44},srcline={364}}{44204C697374206F66206D657461626F6C69746573206D617070656420746F20746865206D657461626F6C6963206E6574776F726B}
\@writefile{toc}{\contentsline {chapter}{\numberline {D}List of metabolites mapped to the metabolic network}{140}{appendix.D}}
\@writefile{lof}{\addvspace {10\p@ }}
\@writefile{lot}{\addvspace {10\p@ }}
\newlabel{a:appendix:metabonetwork}{{D}{140}{List of metabolites mapped to the metabolic network}{appendix.D}{}}
\BKM@entry{id=76,dest={7461626C652E63617074696F6E2E313238},srcline={2}}{4269626C696F677261706879}
\bibstyle{IEEEtran}
\bibdata{bibliography/dissertation}
\@writefile{lot}{\contentsline {table}{\numberline {D.1}{\ignorespaces  List of metabolite found to be in the human metabolic network reconstructed from the RNA-seq data.\relax }}{141}{table.caption.128}}
\newlabel{appendix:metabolitenetlist}{{D.1}{141}{List of metabolite found to be in the human metabolic network reconstructed from the RNA-seq data.\relax }{table.caption.128}{}}
\bibcite{Aardema2002}{1}
\bibcite{Vlaanderen2010}{2}
\bibcite{Wheelock2013}{3}
\bibcite{Zhang2007}{4}
\bibcite{Davies2010}{5}
\bibcite{Zhang2008}{6}
\bibcite{Lander2001}{7}
\bibcite{Wang2009}{8}
\@writefile{toc}{\contentsline {chapter}{Bibliography}{142}{table.caption.128}}
\bibcite{Anderson1998}{9}
\bibcite{Blackstock1999}{10}
\bibcite{Oliver1998}{11}
\bibcite{Breitbart1987}{12}
\bibcite{Gygi1999}{13}
\bibcite{Tate1993}{14}
\bibcite{Pan2008}{15}
\bibcite{Covello1989}{16}
\bibcite{mann2003proteomic}{17}
\bibcite{DeTayrac2009}{18}
\bibcite{Meng2014}{19}
\bibcite{Zhang2010}{20}
\bibcite{LeCao2009}{21}
\bibcite{Polpitiya2008}{22}
\bibcite{Rohart2017}{23}
\bibcite{Fukushima2009}{24}
\bibcite{Joyce2006}{25}
\bibcite{Fiehn2002}{26}
\bibcite{Winger1993}{27}
\bibcite{Santos2003}{28}
\bibcite{yamashita1984electrospray}{29}
\bibcite{Karas1985}{30}
\bibcite{Lee2010}{31}
\bibcite{yost1979triple}{32}
\bibcite{Buszewski2012}{33}
\bibcite{Dettmer2007}{34}
\bibcite{Pedrioli2004}{35}
\bibcite{Lin2005}{36}
\bibcite{Martens2011}{37}
\bibcite{Chambers2012}{38}
\bibcite{Holman2014}{39}
\bibcite{Afgan2016}{40}
\bibcite{Tautenhahn2008}{41}
\bibcite{Smith:2006}{42}
\bibcite{Tikunov2005}{43}
\bibcite{Katajamaa:2006}{44}
\bibcite{Kassidas1998}{45}
\bibcite{Eilers2004}{46}
\bibcite{VanNederkassel2006}{47}
\bibcite{Nielsen1998}{48}
\bibcite{NIPS2004_2721}{49}
\bibcite{Christin2008}{50}
\bibcite{Christin2010}{51}
\bibcite{And2006}{52}
\bibcite{Voss2011}{53}
\bibcite{Hoffmann2012}{54}
\bibcite{Ballardini2011}{55}
\bibcite{Smith2013}{56}
\bibcite{Lange2008}{57}
\bibcite{Smith2015}{58}
\bibcite{Berg2013}{59}
\bibcite{Scheltema2008}{60}
\bibcite{Scheltema:2011}{61}
\bibcite{Annesley2003}{62}
\bibcite{Kuhl2012}{63}
\bibcite{Sumner2007}{64}
\bibcite{Kanehisa2014}{65}
\bibcite{Kim2016}{66}
\bibcite{Wishart2013}{67}
\bibcite{Sud2007}{68}
\bibcite{Kind2006}{69}
\bibcite{Creek2011}{70}
\bibcite{Horai2010}{71}
\bibcite{Pence2010}{72}
\bibcite{FernAndez-Albert2014}{73}
\bibcite{Wehrens2016}{74}
\bibcite{Ejigu2013}{75}
\bibcite{benjamini1995controlling}{76}
\bibcite{May2009}{77}
\bibcite{Creek:2012}{78}
\bibcite{Clasquin:2012}{79}
\bibcite{Tautenhahn2012}{80}
\bibcite{Giacomoni:2015}{81}
\bibcite{Xia:2012}{82}
\bibcite{Gowda2014}{83}
\bibcite{Rost2016}{84}
\bibcite{Xia2010}{85}
\bibcite{Yamada2011}{86}
\bibcite{Leader2011}{87}
\bibcite{Cottret2010}{88}
\bibcite{Kutmon2015}{89}
\bibcite{Jourdan2008}{90}
\bibcite{Karnovsky2012}{91}
\bibcite{Fourment2008}{92}
\bibcite{MATLAB:2010}{93}
\bibcite{R}{94}
\bibcite{shiny}{95}
\bibcite{rubyonrails}{96}
\bibcite{django}{97}
\bibcite{Tong2004}{98}
\bibcite{Stuart2003}{99}
\bibcite{Karlebach2008}{100}
\bibcite{Ashburner2000}{101}
\bibcite{Duarte2007}{102}
\bibcite{Forster2003}{103}
\bibcite{Orth2010}{104}
\bibcite{Price2003}{105}
\bibcite{Thiele2013}{106}
\bibcite{Bray1998}{107}
\bibcite{Ihaka1996}{108}
\bibcite{celery}{109}
\bibcite{rabbitmq}{110}
\bibcite{python}{111}
\bibcite{mysql}{112}
\bibcite{nginx}{113}
\bibcite{gunicorn}{114}
\bibcite{numpy}{115}
\bibcite{scipy}{116}
\bibcite{scikit}{117}
\bibcite{rpy2}{118}
\bibcite{Beisken2015}{119}
\bibcite{Gibney2005}{120}
\bibcite{Vincent2016}{121}
\bibcite{Stipetic2016}{122}
\bibcite{Gloaguen2017}{123}
\bibcite{Patti2012}{124}
\bibcite{Salek2013}{125}
\bibcite{parr2004enforcing}{126}
\bibcite{ONeil2008}{127}
\bibcite{Salek2015}{128}
\bibcite{Stipetic2015}{129}
\bibcite{Alonso2015}{130}
\bibcite{Goodacre2007}{131}
\bibcite{Bowen2010}{132}
\bibcite{VanderHooft2012}{133}
\bibcite{Kell2004}{134}
\bibcite{Haug2013}{135}
\bibcite{Ridder2012}{136}
\bibcite{Ridder2013}{137}
\bibcite{Auber2012}{138}
\bibcite{Shannon2003}{139}
\bibcite{Merlet2016}{140}
\bibcite{Hastings2013}{141}
\bibcite{Vogeser2007}{142}
\bibcite{Doerr2014}{143}
\bibcite{Merkel2014}{144}
\bibcite{Bostock2011}{145}
\bibcite{Scholz}{146}
\bibcite{AdamJCarrol2010}{147}
\bibcite{Ferry-Dumazet2011}{148}
\bibcite{metaboworkbench}{149}
\bibcite{VanderHooft2016}{150}
\bibcite{Grando2014}{151}
\bibcite{Schuller2009}{152}
\bibcite{Alkondon1997}{153}
\bibcite{Urano2010}{154}
\bibcite{Canuel2015}{155}
\bibcite{LeCao2008}{156}
\bibcite{Gomez-Cabrero2014}{157}
\bibcite{Palsson2010}{158}
\bibcite{Martin2011}{159}
\bibcite{Joshi2011}{160}
\bibcite{Kim2015}{161}
\bibcite{Trapnell2012}{162}
\bibcite{Cock2010}{163}
\bibcite{Warde-Farley2010}{164}
\bibcite{Huang2008}{165}
\bibcite{Aken2016}{166}
\bibcite{Maglott2005}{167}
\bibcite{Tonstad2009}{168}
\bibcite{Aldaham2015}{169}
\bibcite{VanderHeiden2011}{170}
\bibcite{Fuchs2005}{171}
\bibcite{Cavill2016}{172}
\bibcite{Misra2016}{173}
\bibcite{Weber2017}{174}
\acro@pages{pimp}{{39}{39}{39}}
\acro@barriers{pimp}{}
\acro@pages{lcms}{{1}{1}{1}}
\acro@barriers{lcms}{}
\acro@pages{ptms}{{14}{14}{14}}
\acro@barriers{ptms}{}
\acro@pages{nmr}{{15}{15}{15}}
\acro@barriers{nmr}{}
\acro@pages{ms}{{15}{15}{15}}
\acro@barriers{ms}{}
\acro@pages{mz}{{17}{17}{17}}
\acro@barriers{mz}{}
\acro@pages{tof}{{17}{17}{17}}
\acro@barriers{tof}{}
\acro@pages{msms}{{17}{17}{17}}
\acro@barriers{msms}{}
\acro@pages{hplc}{{18}{18}{18}}
\acro@barriers{hplc}{}
\acro@pages{hilic}{{18}{18}{18}}
\acro@barriers{hilic}{}
\acro@pages{tic}{{22}{22}{22}}
\acro@barriers{tic}{}
\acro@pages{dtw}{{22}{22}{22}}
\acro@barriers{dtw}{}
\acro@pages{ptw}{{22}{22}{22}}
\acro@barriers{ptw}{}
\acro@pages{cow}{{22}{22}{22}}
\acro@barriers{cow}{}
\acro@pages{cpm}{{22}{22}{22}}
\acro@barriers{cpm}{}
\acro@pages{coda}{{22}{22}{22}}
\acro@barriers{coda}{}
\acro@pages{obiwarp}{{22}{22}{22}}
\acro@barriers{obiwarp}{}
\acro@pages{msi}{{24}{24}{24}}
\acro@barriers{msi}{}
\acro@pages{pca}{{27}{27}{27}}
\acro@barriers{pca}{}
\acro@pages{eic}{{27}{27}{27}}
\acro@barriers{eic}{}
\acro@pages{gp}{{32}{32}{32}}
\acro@barriers{gp}{}
\acro@pages{json}{{33}{33}{33}}
\acro@barriers{json}{}
\acro@pages{mvt}{{33}{33}{33}}
\acro@barriers{mvt}{}
\acro@pages{ajax}{{34}{34}{34}}
\acro@barriers{ajax}{}
\acro@pages{orm}{{52}{52}{52}}
\acro@barriers{orm}{}
\acro@pages{cosmos}{{56}{56}{56}}
\acro@barriers{cosmos}{}
\acro@pages{dda}{{72}{72}{72}}
\acro@barriers{dda}{}
\acro@pages{dia}{{72}{72}{72}}
\acro@barriers{dia}{}
\acro@pages{gcms}{{76}{76}{76}}
\acro@barriers{gcms}{}
\acro@pages{frank}{{84}{84}{84}}
\acro@barriers{frank}{}
\acro@pages{nist}{{85}{85}{85}}
\acro@barriers{nist}{}
\acro@pages{a7nachr}{{102}{102}{102}}
\acro@barriers{a7nachr}{}
\acro@pages{crp}{{119}{119}{119}}
\acro@barriers{crp}{}
\acro@pages{lims}{{16}{16}{16}}
\acro@barriers{lims}{}
\acro@rerun@check 
